{
    "locations": [
        {
            "city": "Orlando",
            "state": "Florida",
            "country": "USA",
            "image": "1-1discoverycove.jpg",
            "primary": 1,
            "secondary": 1,
            "description": "Orlando is the ultimate destination for fun. Check out the Wizarding World of Harry Potter, swim with dolphins at Discovery Cove, and watch an amazing Cirque du Soleil show. Stay at the Kidani Village at Disney’s Animal kingdom with exotic animals just out your window and enjoy a plethora of dining experiences."
        },
        {
            "city": "Bluffton",
            "state": "South Carolina",
            "country": "USA",
            "image": "1-2blufftonsouthcarolina.jpg",
            "primary": 1,
            "secondary": 2,
            "description": "Bluffton has a lot to offer for fun and relaxation. Explore the beautiful Old Town Bluffton, take a dolphin and whale watching excursion, enjoy the Palmeto Oaks Sculpture Garden, and catch a show at the May River Theater. Enjoy many fun dining options and stay at one of the spa resorts."
        },
        {
            "city": "Adeje",
            "state": null,
            "country": "Spain",
            "image": "1-3adejespain.jpg",
            "primary": 1,
            "secondary": 3,
            "description": "Adeje is the place to go for fun and adventure. Spend a day (or two) swimming and going down exhilarating water slides at Siam Park, go scuba diving or snorkeling off the coast, and enjoy the shopping experiences at the Siam Mall Tenerife. Enjoy a wide variety of world cuisines at the countless restaurants and stay at the Twin Fin Surfhouse."
        },
        {
            "city": "Kyoto",
            "state": null,
            "country": "Japan",
            "image": "1-4kyotojapan.jpg",
            "primary": 1,
            "secondary": 4,
            "description": "Kyoto is the perfect destination for fun and cultural experiences. Visit the stunning shrines and temples such as the Rokoun-ji Temple, try a Haru cooking class, enjoy a tea room ceremony, and watch a show at the Samurai Kembu Theater. Enjoy amazing Japanese cuisine and stay at one of the highly rated hotels."
        },
        {
            "city": "Vancouver",
            "state": null,
            "country": "Canada",
            "image": "2-1vancouvercanada.jpg",
            "primary": 2,
            "secondary": 1,
            "description": "Vancouver is the place to go for a fun and relaxed vacation. Rent a bike and ride through Stanley Park, visit the marketplace at Granville Island, ride the Aquabus, and discover the amazing Vancouver Aquarium. Enjoy a wide range of high-rated restaurant options and stay at one of the amazing hotel and spas."
        },
        {
            "city": "Little Torch Key Island",
            "state": "Florida",
            "country": "USA",
            "image": "2-2littletorchkey.jpg",
            "primary": 2,
            "secondary": 2,
            "description": "Little Torch Key is the best getaway for a completely relaxed and rejuvenating vacation. Stay at the Little Palm Island Resort and Spa, enjoy the beautiful and secluded white sand beach, take a breathtaking photo tour, and enjoy luxurious spa treatment. Enjoy gourmet food and rest peacefully in a relaxing bungalow suite."
        },
        {
            "city": "Bay of Islands",
            "state": null,
            "country": "New Zealand",
            "image": "2-3bayofislandsnewzealand.jpg",
            "primary": 2,
            "secondary": 3,
            "description": "Bay of Islands offers a comfortable atmosphere with opportunities for relaxed adventures. You can take a short walk to see the beautiful Rainbow Falls, experience one of the many breathtaking boat tours, and play with parrots at The Parrot Place. Choose from authentic or familiar cuisine, and stay at one of the highly rated spa beach resorts."
        },
        {
            "city": "Carmel",
            "state": "California",
            "country": "USA",
            "image": "2-4carmelcalifornia.jpg",
            "primary": 2,
            "secondary": 4,
            "description": "Carmel has a lot to offer for luxury and relaxation. Lay in the sand at the beautiful Carmel City Beach, take the stunning Scenic Road Walkway, visit the beautiful San Carlos Borromeo de Carmelo Mission, and catch a concert at the Sunset Cultural Center. Choose from a plethora of highly rated restaurants and relax at one of the luxurious hotels."
        },
        {
            "city": "Zion National Park",
            "state": "Utah",
            "country": "USA",
            "image": "3-3zionnationalparkutah.jpg",
            "primary": 3,
            "secondary": 3,
            "description": "Zion is the ultimate vacation spot for adventure and amazing scenery. Hike through the world-famous Narrows, scale the breath-taking Angel’s Landing, and visit the Emerald Pools. Enjoy some fresh trout or bison at one of the nearby restaurants. For the hardcore adventurer, try camping or stay in a tipi at the Village of Many Nations."
        },
        {
            "city": "Valbard",
            "state": null,
            "country": "Norway",
            "image": "3-1valbardnorway.jpg",
            "primary": 3,
            "secondary": 1,
            "description": "Svalbard is a fun experience for adventurers. Take a fun nature and wildlife tour, explore the ghost town Pyramiden, go on a snowmobile trek, and choose a time of year when you may be able to enjoy the Auroral Borealis. For the ultimate adventure, stay at one of the basecamp hotels and enjoy the unique food they have to offer."
        },
        {
            "city": "Lake Placid",
            "state": "New York",
            "country": "USA",
            "image": "3-2lakeplacidnewyork.jpg",
            "primary": 3,
            "secondary": 2,
            "description": "Lake Placid is the place for a relaxed adventurer. Take a walk around the beautiful Mirror Lake, take a short hike up the breathtaking Mount Jo, and take a sky lift to the Olympic Ski Jump Complex. Enjoy a great selection of delicious dining options and relax at one of the highly rated resort and spas."
        },
        {
            "city": "County Kerry",
            "state": null,
            "country": "Ireland",
            "image": "3-4skelligmichaelireland.jpg",
            "primary": 3,
            "secondary": 4,
            "description": "County Kerry has everything for an adventurer and history enthusiast. Hike up the breathtaking Skellig Michael, visit historic places such as the beautiful Muckross Abbey and Ross Castle, and take one of the highly-rated rappelling tours. Stay at a beachside resort and enjoy first class Irish cuisine."
        },
        {
            "city": "Dresden",
            "state": null,
            "country": "Germany",
            "image": "4-1dresdengermany.jpg",
            "primary": 4,
            "secondary": 1,
            "description": "Dresden offers a plethora of cultural and fun experiences. Visit astounding sights such as the Frauenkirche and the Zwinger, solve the fun and challenging puzzles of one of the popular escape rooms, and enjoy a show at the Semper Opera House."
        },
        {
            "city": "Sydney",
            "state": null,
            "country": "Australia",
            "image": "4-2sydneyaustralia.jpg",
            "primary": 4,
            "secondary": 2,
            "description": "Sydney is the place to go for a culturally stimulating and comfortable vacation. Take in the beauty as you stroll along the Bondi to Coogee Beach Coastal Walk, visit the Royal Botanic Gardens, experience the Art Gallery of New South Wales, and enjoy a show at the Sydney Opera House. Stay at a luxury hotel and enjoy many exquisite dining options."
        },
        {
            "city": "Machu Picchu",
            "state": null,
            "country": "Peru",
            "image": "4-3machupicchuperu.jpg",
            "primary": 4,
            "secondary": 3,
            "description": "Machu Picchu is the perfect destination for the thoughtful adventurer. Take in the wonder of the many temples and ruins, hike Huayna Picchu, and meditate in the Jardin Botanico. Enjoy gourmet dining and comfortable hotel accommodations."
        },
        {
            "city": "Sorrento",
            "state": null,
            "country": "Italy",
            "image": "4-4sorrentoitaly.jpg",
            "primary": 4,
            "secondary": 4,
            "description": "Sorrento is the must go destination for outstanding cultural experiences, exquisite hotels, and fine dining. Take in the stunning ocean views, discover the ruins of Pompeii, visit the beautiful Cattedrale di Sorrento, and enjoy the Sorrento Opera Festival."
        }
    ],
    "types": [
        {
            "id": 1,
            "name": "Fun",
            "adjective": "Carefree",
            "person": "Socialite",
            "description": "express yourself through social interactions and playful events",
            "votes": 0,
            "activities_adjective": "socially-oriented",
            "dining_adjective": "unconfined",
            "entertainment_adjective": "exciting",
            "lodging_adjective": "fun",
            "activities": [
                "amusement parks",
                "outdoor recreation"
            ],
            "entertainment": [
                "night clubs",
                "live bands"
            ],
            "dining": [
                "street vendors",
                "outdoor restaurants"
            ],
            "lodging": [
                "recreational resorts",
                "themed rooms"
            ]
        },
        {
            "id": 2,
            "name": "Comfort",
            "adjective": "Peaceful",
            "person": "Comfort Lover",
            "description": "to feel good and make others feel good through quality bonding time",
            "votes": 0,
            "activities_adjective": "low stress",
            "dining_adjective": "romantic",
            "entertainment_adjective": "emotionally-stimulating",
            "lodging_adjective": "relaxing",
            "activities": [
                "a leisurely trip to the beach",
                "relaxing time at a spa"
            ],
            "entertainment": [
                "plays",
                "a night at the symphony"
            ],
            "dining": [
                "your favorite restaurant",
                "a candle-lit dinner"
            ],
            "lodging": [
                "bead and breakfast hotel",
                "a room with a Jacuzzi"
            ]
        },
        {
            "id": 3,
            "name": "Challenge",
            "adjective": "Driven",
            "person": "Adventurer",
            "description": "take control through challenging and high-energy experiences",
            "votes": 0,
            "activities_adjective": "challenging",
            "dining_adjective": "exciting",
            "entertainment_adjective": "high energy",
            "lodging_adjective": "earthy",
            "activities": [
                "rock climbing",
                "high adventure activities"
            ],
            "entertainment": [
                "rock concerts",
                "acrobatics"
            ],
            "dining": [
                "exotic cuisine",
                "diverse buffets"
            ],
            "lodging": [
                "camping under the stars",
                "mountain lodges"
            ]
        },
        {
            "id": 4,
            "name": "Culture",
            "adjective": "Cultured",
            "person": "Connoisseur",
            "description": "engage your mind through stimulating and uplifting activities",
            "votes": 0,
            "activities_adjective": "intellectually-stimulating",
            "dining_adjective": "sophisticated",
            "entertainment_adjective": "cultured",
            "lodging_adjective": "luxurious",
            "activities": [
                "touring historical sites",
                "visiting museums"
            ],
            "entertainment": [
                "a fancy ball",
                "a night at the opera"
            ],
            "dining": [
                "a four course dinner",
                "a famous local restaurant"
            ],
            "lodging": [
                "a private villa",
                "a ritzy hotel"
            ]
        }
    ]
}
